{
  "frames": {
      "balloon_pink_1":
      {
          "frame": {"x":0,"y":0,"w":95,"h":132},
          "spriteSourceSize": {"x":0,"y":0,"w":95,"h":132},
          "sourceSize": {"w":95,"h":132},
          "anchor": {"x":0,"y":0}
      },
      "balloon_pink_2":
      {
          "frame": {"x":123,"y":0,"w":95,"h":132},
          "spriteSourceSize": {"x":0,"y":0,"w":95,"h":132},
          "sourceSize": {"w":95,"h":132},
          "anchor": {"x":0,"y":0}
      },
      "balloon_pink_3":
      {
          "frame": {"x":246,"y":0,"w":95,"h":132},
          "spriteSourceSize": {"x":0,"y":0,"w":95,"h":132},
          "sourceSize": {"w":95,"h":132},
          "anchor": {"x":60,"y":66}
      },
      "balloon_pink_4":
      {
          "frame": {"x":368,"y":0,"w":95,"h":132},
          "spriteSourceSize": {"x":0,"y":0,"w":95,"h":132},
          "sourceSize": {"w":95,"h":132},
          "anchor": {"x":60,"y":66}
      },
      "balloon_pink_5":
      {
          "frame": {"x":491,"y":0,"w":95,"h":132},
          "spriteSourceSize": {"x":0,"y":0,"w":95,"h":132},
          "sourceSize": {"w":95,"h":132},
          "anchor": {"x":60,"y":66}
      },
      "balloon_pink_6":
      {
          "frame": {"x":614,"y":0,"w":95,"h":132},
          "spriteSourceSize": {"x":0,"y":0,"w":95,"h":132},
          "sourceSize": {"w":95,"h":132},
          "anchor": {"x":60,"y":66}
      },
      "balloon_pink_7":
      {
          "frame": {"x":737,"y":0,"w":95,"h":132},
          "spriteSourceSize": {"x":0,"y":0,"w":95,"h":132},
          "sourceSize": {"w":95,"h":132},
          "anchor": {"x":60,"y":66}
      },
      "balloon_pink_8":
      {
          "frame": {"x":860,"y":0,"w":95,"h":132},
          "spriteSourceSize": {"x":0,"y":0,"w":95,"h":132},
          "sourceSize": {"w":95,"h":132},
          "anchor": {"x":60,"y":66}
      },
      "balloon_pink_9":
      {
          "frame": {"x":982,"y":0,"w":95,"h":132},
          "spriteSourceSize": {"x":0,"y":0,"w":95,"h":132},
          "sourceSize": {"w":95,"h":132},
          "anchor": {"x":60,"y":66}
      },
      "balloon_pink_10":
      {
          "frame": {"x":1105,"y":0,"w":95,"h":132},
          "spriteSourceSize": {"x":0,"y":0,"w":95,"h":132},
          "sourceSize": {"w":95,"h":132},
          "anchor": {"x":0,"y":0}
      }
  },

  "animations": {
      "burst": [
        "balloon_pink_1","balloon_pink_2","balloon_pink_3","balloon_pink_4","balloon_pink_5"
        ,"balloon_pink_6","balloon_pink_7","balloon_pink_8","balloon_pink_9","balloon_pink_10"
    ]
  },

  "meta": {
      "image": "../sprites/balloon_pink.png",
      "format": "RGBA8888",
      "size": {"w":1200,"h":132},
      "scale": "1"
  }
}